^D:\BIGGAME\UML-TESTING\SPELLHIERARCHY\SPELLHIERARCHY\DEBUG\MAIN.OBJ
D:\BIGGAME\UML-TESTING\SPELLHIERARCHY\DEBUG\SPELLHIERARCHY.ILK
D:\BIGGAME\UML-TESTING\SPELLHIERARCHY\DEBUG\SPELLHIERARCHY.EXE
D:\BIGGAME\UML-TESTING\SPELLHIERARCHY\DEBUG\SPELLHIERARCHY.PDB
